<svg width="515" height="498" viewBox="0 0 515 498" fill="none" xmlns="http://www.w3.org/2000/svg">
<path d="M14.7744 83.3371C84.5192 4.24334 207.878 -21.6263 400.72 20.869C593.562 63.3643 521.989 469.667 328.657 495.991C135.325 522.316 -54.9704 162.431 14.7744 83.3371Z" fill="white"/>
</svg>
